[10/12/2019 22:25:17] Error frm_customer::: setPersonPackage ::System.Net.Http.UnsupportedMediaTypeException: No MediaTypeFormatter is available to read an object of type 'List`1' from content with media type 'text/html'.
   at System.Net.Http.HttpContentExtensions.ReadAsAsync[T](HttpContent content, Type type, IEnumerable`1 formatters, IFormatterLogger formatterLogger, CancellationToken cancellationToken)
   at System.Net.Http.HttpContentExtensions.ReadAsAsync[T](HttpContent content, Type type, IEnumerable`1 formatters, IFormatterLogger formatterLogger)
   at System.Net.Http.HttpContentExtensions.ReadAsAsync[T](HttpContent content, IEnumerable`1 formatters)
   at System.Net.Http.HttpContentExtensions.ReadAsAsync[T](HttpContent content)
   at MONKEY_APP.ApiProcess.<getPackageByPersonCode>d__17.MoveNext() in D:\Project C#\MONKEY_APP\MONKEY_APP\ApiProcess.cs:line 382
--- End of stack trace from previous location where exception was thrown ---
   at System.Runtime.CompilerServices.TaskAwaiter.ThrowForNonSuccess(Task task)
   at System.Runtime.CompilerServices.TaskAwaiter.HandleNonSuccessAndDebuggerNotification(Task task)
   at System.Runtime.CompilerServices.TaskAwaiter`1.GetResult()
   at MONKEY_APP.frm_customer.<setPersonPackage>d__22.MoveNext() in D:\Project C#\MONKEY_APP\MONKEY_APP\frm_customer.cs:line 668
[10/12/2019 22:25:18] Error frm_checkin::: setPersonCheckin ::System.Net.Http.UnsupportedMediaTypeException: No MediaTypeFormatter is available to read an object of type 'List`1' from content with media type 'text/html'.
   at System.Net.Http.HttpContentExtensions.ReadAsAsync[T](HttpContent content, Type type, IEnumerable`1 formatters, IFormatterLogger formatterLogger, CancellationToken cancellationToken)
   at System.Net.Http.HttpContentExtensions.ReadAsAsync[T](HttpContent content, Type type, IEnumerable`1 formatters, IFormatterLogger formatterLogger)
   at System.Net.Http.HttpContentExtensions.ReadAsAsync[T](HttpContent content, IEnumerable`1 formatters)
   at System.Net.Http.HttpContentExtensions.ReadAsAsync[T](HttpContent content)
   at MONKEY_APP.ApiProcess.<getPersonCheckin>d__5.MoveNext() in D:\Project C#\MONKEY_APP\MONKEY_APP\ApiProcess.cs:line 123
--- End of stack trace from previous location where exception was thrown ---
   at System.Runtime.CompilerServices.TaskAwaiter.ThrowForNonSuccess(Task task)
   at System.Runtime.CompilerServices.TaskAwaiter.HandleNonSuccessAndDebuggerNotification(Task task)
   at System.Runtime.CompilerServices.TaskAwaiter`1.GetResult()
   at MONKEY_APP.frm_customer.<setPersonCheckin>d__23.MoveNext() in D:\Project C#\MONKEY_APP\MONKEY_APP\frm_customer.cs:line 717
[10/12/2019 22:25:19] Error frm_customer::: setPersonPackage ::System.Net.Http.UnsupportedMediaTypeException: No MediaTypeFormatter is available to read an object of type 'List`1' from content with media type 'text/html'.
   at System.Net.Http.HttpContentExtensions.ReadAsAsync[T](HttpContent content, Type type, IEnumerable`1 formatters, IFormatterLogger formatterLogger, CancellationToken cancellationToken)
   at System.Net.Http.HttpContentExtensions.ReadAsAsync[T](HttpContent content, Type type, IEnumerable`1 formatters, IFormatterLogger formatterLogger)
   at System.Net.Http.HttpContentExtensions.ReadAsAsync[T](HttpContent content, IEnumerable`1 formatters)
   at System.Net.Http.HttpContentExtensions.ReadAsAsync[T](HttpContent content)
   at MONKEY_APP.ApiProcess.<getPackageByPersonCode>d__17.MoveNext() in D:\Project C#\MONKEY_APP\MONKEY_APP\ApiProcess.cs:line 382
--- End of stack trace from previous location where exception was thrown ---
   at System.Runtime.CompilerServices.TaskAwaiter.ThrowForNonSuccess(Task task)
   at System.Runtime.CompilerServices.TaskAwaiter.HandleNonSuccessAndDebuggerNotification(Task task)
   at System.Runtime.CompilerServices.TaskAwaiter`1.GetResult()
   at MONKEY_APP.frm_customer.<setPersonPackage>d__22.MoveNext() in D:\Project C#\MONKEY_APP\MONKEY_APP\frm_customer.cs:line 668
[10/12/2019 22:25:22] Error frm_customer::: setPersonPackage ::System.Net.Http.UnsupportedMediaTypeException: No MediaTypeFormatter is available to read an object of type 'List`1' from content with media type 'text/html'.
   at System.Net.Http.HttpContentExtensions.ReadAsAsync[T](HttpContent content, Type type, IEnumerable`1 formatters, IFormatterLogger formatterLogger, CancellationToken cancellationToken)
   at System.Net.Http.HttpContentExtensions.ReadAsAsync[T](HttpContent content, Type type, IEnumerable`1 formatters, IFormatterLogger formatterLogger)
   at System.Net.Http.HttpContentExtensions.ReadAsAsync[T](HttpContent content, IEnumerable`1 formatters)
   at System.Net.Http.HttpContentExtensions.ReadAsAsync[T](HttpContent content)
   at MONKEY_APP.ApiProcess.<getPackageByPersonCode>d__17.MoveNext() in D:\Project C#\MONKEY_APP\MONKEY_APP\ApiProcess.cs:line 382
--- End of stack trace from previous location where exception was thrown ---
   at System.Runtime.CompilerServices.TaskAwaiter.ThrowForNonSuccess(Task task)
   at System.Runtime.CompilerServices.TaskAwaiter.HandleNonSuccessAndDebuggerNotification(Task task)
   at System.Runtime.CompilerServices.TaskAwaiter`1.GetResult()
   at MONKEY_APP.frm_customer.<setPersonPackage>d__22.MoveNext() in D:\Project C#\MONKEY_APP\MONKEY_APP\frm_customer.cs:line 668
[10/12/2019 22:25:22] Error frm_checkin::: setPersonCheckin ::System.Net.Http.UnsupportedMediaTypeException: No MediaTypeFormatter is available to read an object of type 'List`1' from content with media type 'text/html'.
   at System.Net.Http.HttpContentExtensions.ReadAsAsync[T](HttpContent content, Type type, IEnumerable`1 formatters, IFormatterLogger formatterLogger, CancellationToken cancellationToken)
   at System.Net.Http.HttpContentExtensions.ReadAsAsync[T](HttpContent content, Type type, IEnumerable`1 formatters, IFormatterLogger formatterLogger)
   at System.Net.Http.HttpContentExtensions.ReadAsAsync[T](HttpContent content, IEnumerable`1 formatters)
   at System.Net.Http.HttpContentExtensions.ReadAsAsync[T](HttpContent content)
   at MONKEY_APP.ApiProcess.<getPersonCheckin>d__5.MoveNext() in D:\Project C#\MONKEY_APP\MONKEY_APP\ApiProcess.cs:line 123
--- End of stack trace from previous location where exception was thrown ---
   at System.Runtime.CompilerServices.TaskAwaiter.ThrowForNonSuccess(Task task)
   at System.Runtime.CompilerServices.TaskAwaiter.HandleNonSuccessAndDebuggerNotification(Task task)
   at System.Runtime.CompilerServices.TaskAwaiter`1.GetResult()
   at MONKEY_APP.frm_customer.<setPersonCheckin>d__23.MoveNext() in D:\Project C#\MONKEY_APP\MONKEY_APP\frm_customer.cs:line 717
