[12/12/2019 22:13:26] Error frm_manage_emp::: getEmployeeById ::System.NullReferenceException: Object reference not set to an instance of an object.
   at MONKEY_APP.frm_manage_emp.<getEmployeeById>d__11.MoveNext() in D:\Project C#\MONKEY_APP\MONKEY_APP\frm_manage_emp.cs:line 235
[12/12/2019 22:14:23] Error frm_manage_emp::: getEmployeeById ::System.NullReferenceException: Object reference not set to an instance of an object.
   at MONKEY_APP.frm_manage_emp.<getEmployeeById>d__11.MoveNext() in D:\Project C#\MONKEY_APP\MONKEY_APP\frm_manage_emp.cs:line 235
