[11/28/2019 3:39:02 PM] Error frm_checkin::: dataGridView1_SelectionChanged ::System.FormatException: String was not recognized as a valid DateTime.
   at System.DateTimeParse.Parse(String s, DateTimeFormatInfo dtfi, DateTimeStyles styles)
   at System.DateTime.Parse(String s)
   at MONKEY_APP.frm_checkin.dataGridView1_SelectionChanged(Object sender, EventArgs e) in D:\Project C#\MONKEY_APP\MONKEY_APP\frm_checkin.cs:line 294
