[13/10/2019 16:09:27] Error frm_manage_checkin::: setPersonPackage ::System.ArgumentOutOfRangeException: Index was out of range. Must be non-negative and less than the size of the collection.
Parameter name: index
   at System.Collections.ArrayList.get_Item(Int32 index)
   at System.Windows.Forms.DataGridViewRowCollection.SharedRow(Int32 rowIndex)
   at System.Windows.Forms.DataGridViewRowCollection.get_Item(Int32 index)
   at MONKEY_APP.frm_manage_transfers.<setPersonPackage>d__11.MoveNext() in D:\Project C#\MONKEY_APP\MONKEY_APP\frm_manage_transfers.cs:line 192
