[10/24/2019 1:13:39 AM] Error frm_fg::: saveFingerScan ::System.Exception: Not Found
   at MONKEY_APP.ApiProcess.<saveFingerScan>d__22.MoveNext() in D:\Project C#\MONKEY_APP\MONKEY_APP\ApiProcess.cs:line 486
--- End of stack trace from previous location where exception was thrown ---
   at System.Runtime.CompilerServices.TaskAwaiter.ThrowForNonSuccess(Task task)
   at System.Runtime.CompilerServices.TaskAwaiter.HandleNonSuccessAndDebuggerNotification(Task task)
   at System.Runtime.CompilerServices.TaskAwaiter`1.GetResult()
   at MONKEY_APP.frm_fg.<saveFingerScan>d__34.MoveNext() in D:\Project C#\MONKEY_APP\MONKEY_APP\frm_fg.cs:line 484
