[01/10/2019 21:41:36] Error frm_home::: checkExpired ::System.Net.Http.UnsupportedMediaTypeException: No MediaTypeFormatter is available to read an object of type 'Response' from content with media type 'text/html'.
   at System.Net.Http.HttpContentExtensions.ReadAsAsync[T](HttpContent content, Type type, IEnumerable`1 formatters, IFormatterLogger formatterLogger, CancellationToken cancellationToken)
   at System.Net.Http.HttpContentExtensions.ReadAsAsync[T](HttpContent content, Type type, IEnumerable`1 formatters, IFormatterLogger formatterLogger)
   at System.Net.Http.HttpContentExtensions.ReadAsAsync[T](HttpContent content, IEnumerable`1 formatters)
   at System.Net.Http.HttpContentExtensions.ReadAsAsync[T](HttpContent content)
   at MONKEY_APP.ApiProcess.<checkExpired>d__26.MoveNext() in D:\Project C#\MONKEY_APP\MONKEY_APP\ApiProcess.cs:line 575
--- End of stack trace from previous location where exception was thrown ---
   at System.Runtime.CompilerServices.TaskAwaiter.ThrowForNonSuccess(Task task)
   at System.Runtime.CompilerServices.TaskAwaiter.HandleNonSuccessAndDebuggerNotification(Task task)
   at System.Runtime.CompilerServices.TaskAwaiter`1.GetResult()
   at MONKEY_APP.frm_home.<checkExpired>d__27.MoveNext() in D:\Project C#\MONKEY_APP\MONKEY_APP\frm_home.cs:line 709
